/Users/cuongseven/NetBeansProjects/CoursesManagement/src/main/java/controllers/SectionServlet.java
/Users/cuongseven/NetBeansProjects/CoursesManagement/src/main/java/controllers/MyProfileServlet.java
/Users/cuongseven/NetBeansProjects/CoursesManagement/src/main/java/controllers/LoginServlet.java
/Users/cuongseven/NetBeansProjects/CoursesManagement/src/main/java/controllers/DetailCourseServlet.java
/Users/cuongseven/NetBeansProjects/CoursesManagement/src/main/java/controllers/HomeServlet.java
/Users/cuongseven/NetBeansProjects/CoursesManagement/src/main/java/controllers/CoursesServlet.java
/Users/cuongseven/NetBeansProjects/CoursesManagement/src/main/java/controllers/RegisterServlet.java
